<?xml version="1.0" encoding="UTF-8"?>
<svg xmlns="http://www.w3.org/2000/svg" xmlns:xlink="http://www.w3.org/1999/xlink" width="525pt" height="324pt" viewBox="0 0 525 324" version="1.1">
<defs>
<g>
<symbol overflow="visible" id="glyph0-0">
<path style="stroke:none;" d="M 0.390625 0 L 0.390625 -8.609375 L 7.21875 -8.609375 L 7.21875 0 Z M 6.140625 -1.078125 L 6.140625 -7.53125 L 1.46875 -7.53125 L 1.46875 -1.078125 Z M 6.140625 -1.078125 "/>
</symbol>
<symbol overflow="visible" id="glyph0-1">
<path style="stroke:none;" d="M 0.5 -3.890625 L 3.4375 -3.890625 L 3.4375 -2.796875 L 0.5 -2.796875 Z M 0.5 -3.890625 "/>
</symbol>
<symbol overflow="visible" id="glyph0-2">
<path style="stroke:none;" d="M 3.25 -8.390625 C 4.332031 -8.390625 5.117188 -7.941406 5.609375 -7.046875 C 5.984375 -6.359375 6.171875 -5.410156 6.171875 -4.203125 C 6.171875 -3.066406 6 -2.125 5.65625 -1.375 C 5.164062 -0.300781 4.359375 0.234375 3.234375 0.234375 C 2.234375 0.234375 1.484375 -0.203125 0.984375 -1.078125 C 0.578125 -1.816406 0.375 -2.800781 0.375 -4.03125 C 0.375 -4.976562 0.5 -5.796875 0.75 -6.484375 C 1.207031 -7.753906 2.039062 -8.390625 3.25 -8.390625 Z M 3.234375 -0.734375 C 3.785156 -0.734375 4.222656 -0.972656 4.546875 -1.453125 C 4.867188 -1.941406 5.03125 -2.847656 5.03125 -4.171875 C 5.03125 -5.117188 4.910156 -5.898438 4.671875 -6.515625 C 4.441406 -7.128906 3.988281 -7.4375 3.3125 -7.4375 C 2.6875 -7.4375 2.226562 -7.144531 1.9375 -6.5625 C 1.65625 -5.976562 1.515625 -5.117188 1.515625 -3.984375 C 1.515625 -3.128906 1.609375 -2.441406 1.796875 -1.921875 C 2.078125 -1.128906 2.554688 -0.734375 3.234375 -0.734375 Z M 3.234375 -0.734375 "/>
</symbol>
<symbol overflow="visible" id="glyph0-3">
<path style="stroke:none;" d="M 1.03125 -1.28125 L 2.25 -1.28125 L 2.25 0 L 1.03125 0 Z M 1.03125 -1.28125 "/>
</symbol>
<symbol overflow="visible" id="glyph0-4">
<path style="stroke:none;" d="M 1.484375 -2.140625 C 1.554688 -1.535156 1.835938 -1.117188 2.328125 -0.890625 C 2.578125 -0.773438 2.863281 -0.71875 3.1875 -0.71875 C 3.8125 -0.71875 4.273438 -0.914062 4.578125 -1.3125 C 4.878906 -1.707031 5.03125 -2.148438 5.03125 -2.640625 C 5.03125 -3.222656 4.847656 -3.675781 4.484375 -4 C 4.128906 -4.320312 3.703125 -4.484375 3.203125 -4.484375 C 2.835938 -4.484375 2.523438 -4.410156 2.265625 -4.265625 C 2.003906 -4.128906 1.785156 -3.9375 1.609375 -3.6875 L 0.6875 -3.734375 L 1.328125 -8.25 L 5.6875 -8.25 L 5.6875 -7.234375 L 2.125 -7.234375 L 1.765625 -4.90625 C 1.960938 -5.050781 2.148438 -5.160156 2.328125 -5.234375 C 2.640625 -5.359375 3 -5.421875 3.40625 -5.421875 C 4.175781 -5.421875 4.828125 -5.171875 5.359375 -4.671875 C 5.898438 -4.179688 6.171875 -3.554688 6.171875 -2.796875 C 6.171875 -2.003906 5.921875 -1.300781 5.421875 -0.6875 C 4.929688 -0.0820312 4.148438 0.21875 3.078125 0.21875 C 2.398438 0.21875 1.796875 0.0234375 1.265625 -0.359375 C 0.742188 -0.742188 0.453125 -1.335938 0.390625 -2.140625 Z M 1.484375 -2.140625 "/>
</symbol>
<symbol overflow="visible" id="glyph0-5">
<path style="stroke:none;" d="M 7.171875 -8.609375 L 7.171875 -7.578125 L 4.28125 -7.578125 L 4.28125 0 L 3.09375 0 L 3.09375 -7.578125 L 0.1875 -7.578125 L 0.1875 -8.609375 Z M 7.171875 -8.609375 "/>
</symbol>
<symbol overflow="visible" id="glyph0-6">
<path style="stroke:none;" d="M 0.796875 -6.28125 L 1.8125 -6.28125 L 1.8125 -5.1875 C 1.882812 -5.40625 2.082031 -5.664062 2.40625 -5.96875 C 2.726562 -6.269531 3.097656 -6.421875 3.515625 -6.421875 C 3.535156 -6.421875 3.566406 -6.414062 3.609375 -6.40625 C 3.660156 -6.40625 3.742188 -6.398438 3.859375 -6.390625 L 3.859375 -5.28125 C 3.796875 -5.289062 3.738281 -5.296875 3.6875 -5.296875 C 3.632812 -5.296875 3.578125 -5.296875 3.515625 -5.296875 C 2.984375 -5.296875 2.570312 -5.125 2.28125 -4.78125 C 2 -4.445312 1.859375 -4.054688 1.859375 -3.609375 L 1.859375 0 L 0.796875 0 Z M 0.796875 -6.28125 "/>
</symbol>
<symbol overflow="visible" id="glyph0-7">
<path style="stroke:none;" d="M 1.828125 -6.28125 L 1.828125 -2.109375 C 1.828125 -1.785156 1.878906 -1.523438 1.984375 -1.328125 C 2.171875 -0.953125 2.519531 -0.765625 3.03125 -0.765625 C 3.757812 -0.765625 4.257812 -1.09375 4.53125 -1.75 C 4.675781 -2.101562 4.75 -2.582031 4.75 -3.1875 L 4.75 -6.28125 L 5.796875 -6.28125 L 5.796875 0 L 4.8125 0 L 4.8125 -0.921875 C 4.675781 -0.679688 4.507812 -0.484375 4.3125 -0.328125 C 3.90625 0.00390625 3.414062 0.171875 2.84375 0.171875 C 1.945312 0.171875 1.335938 -0.128906 1.015625 -0.734375 C 0.835938 -1.046875 0.75 -1.472656 0.75 -2.015625 L 0.75 -6.28125 Z M 3.28125 -6.421875 Z M 3.28125 -6.421875 "/>
</symbol>
<symbol overflow="visible" id="glyph0-8">
<path style="stroke:none;" d="M 3.390625 -6.421875 C 3.835938 -6.421875 4.269531 -6.316406 4.6875 -6.109375 C 5.101562 -5.898438 5.421875 -5.628906 5.640625 -5.296875 C 5.847656 -4.972656 5.988281 -4.601562 6.0625 -4.1875 C 6.125 -3.894531 6.15625 -3.429688 6.15625 -2.796875 L 1.546875 -2.796875 C 1.566406 -2.160156 1.71875 -1.648438 2 -1.265625 C 2.28125 -0.878906 2.71875 -0.6875 3.3125 -0.6875 C 3.863281 -0.6875 4.300781 -0.867188 4.625 -1.234375 C 4.8125 -1.441406 4.945312 -1.6875 5.03125 -1.96875 L 6.0625 -1.96875 C 6.039062 -1.738281 5.953125 -1.484375 5.796875 -1.203125 C 5.640625 -0.921875 5.46875 -0.6875 5.28125 -0.5 C 4.957031 -0.1875 4.554688 0.0195312 4.078125 0.125 C 3.828125 0.1875 3.539062 0.21875 3.21875 0.21875 C 2.4375 0.21875 1.773438 -0.0625 1.234375 -0.625 C 0.691406 -1.195312 0.421875 -1.992188 0.421875 -3.015625 C 0.421875 -4.023438 0.691406 -4.84375 1.234375 -5.46875 C 1.785156 -6.101562 2.503906 -6.421875 3.390625 -6.421875 Z M 5.0625 -3.640625 C 5.019531 -4.097656 4.921875 -4.460938 4.765625 -4.734375 C 4.484375 -5.242188 4.003906 -5.5 3.328125 -5.5 C 2.835938 -5.5 2.425781 -5.320312 2.09375 -4.96875 C 1.769531 -4.625 1.597656 -4.179688 1.578125 -3.640625 Z M 3.28125 -6.421875 Z M 3.28125 -6.421875 "/>
</symbol>
<symbol overflow="visible" id="glyph0-9">
<path style="stroke:none;" d=""/>
</symbol>
<symbol overflow="visible" id="glyph0-10">
<path style="stroke:none;" d="M 2.984375 -6.390625 C 3.484375 -6.390625 3.914062 -6.269531 4.28125 -6.03125 C 4.476562 -5.882812 4.679688 -5.679688 4.890625 -5.421875 L 4.890625 -6.21875 L 5.859375 -6.21875 L 5.859375 -0.515625 C 5.859375 0.285156 5.742188 0.914062 5.515625 1.375 C 5.078125 2.226562 4.25 2.65625 3.03125 2.65625 C 2.351562 2.65625 1.785156 2.503906 1.328125 2.203125 C 0.867188 1.898438 0.609375 1.425781 0.546875 0.78125 L 1.625 0.78125 C 1.675781 1.0625 1.773438 1.28125 1.921875 1.4375 C 2.160156 1.664062 2.535156 1.78125 3.046875 1.78125 C 3.859375 1.78125 4.390625 1.492188 4.640625 0.921875 C 4.785156 0.585938 4.851562 -0.0078125 4.84375 -0.875 C 4.632812 -0.550781 4.378906 -0.3125 4.078125 -0.15625 C 3.785156 0 3.394531 0.078125 2.90625 0.078125 C 2.226562 0.078125 1.632812 -0.160156 1.125 -0.640625 C 0.613281 -1.128906 0.359375 -1.929688 0.359375 -3.046875 C 0.359375 -4.097656 0.613281 -4.914062 1.125 -5.5 C 1.644531 -6.09375 2.265625 -6.390625 2.984375 -6.390625 Z M 4.890625 -3.171875 C 4.890625 -3.941406 4.726562 -4.515625 4.40625 -4.890625 C 4.082031 -5.265625 3.675781 -5.453125 3.1875 -5.453125 C 2.4375 -5.453125 1.925781 -5.101562 1.65625 -4.40625 C 1.507812 -4.039062 1.4375 -3.554688 1.4375 -2.953125 C 1.4375 -2.242188 1.578125 -1.703125 1.859375 -1.328125 C 2.148438 -0.960938 2.539062 -0.78125 3.03125 -0.78125 C 3.789062 -0.78125 4.320312 -1.125 4.625 -1.8125 C 4.800781 -2.195312 4.890625 -2.648438 4.890625 -3.171875 Z M 3.109375 -6.421875 Z M 3.109375 -6.421875 "/>
</symbol>
<symbol overflow="visible" id="glyph0-11">
<path style="stroke:none;" d="M 1.40625 -1.96875 C 1.4375 -1.613281 1.523438 -1.34375 1.671875 -1.15625 C 1.929688 -0.820312 2.390625 -0.65625 3.046875 -0.65625 C 3.441406 -0.65625 3.785156 -0.738281 4.078125 -0.90625 C 4.378906 -1.070312 4.53125 -1.332031 4.53125 -1.6875 C 4.53125 -1.957031 4.410156 -2.164062 4.171875 -2.3125 C 4.015625 -2.394531 3.710938 -2.492188 3.265625 -2.609375 L 2.421875 -2.8125 C 1.890625 -2.945312 1.5 -3.097656 1.25 -3.265625 C 0.789062 -3.546875 0.5625 -3.941406 0.5625 -4.453125 C 0.5625 -5.046875 0.773438 -5.523438 1.203125 -5.890625 C 1.628906 -6.253906 2.207031 -6.4375 2.9375 -6.4375 C 3.875 -6.4375 4.550781 -6.160156 4.96875 -5.609375 C 5.238281 -5.253906 5.367188 -4.875 5.359375 -4.46875 L 4.359375 -4.46875 C 4.335938 -4.707031 4.253906 -4.925781 4.109375 -5.125 C 3.867188 -5.394531 3.445312 -5.53125 2.84375 -5.53125 C 2.445312 -5.53125 2.144531 -5.453125 1.9375 -5.296875 C 1.738281 -5.148438 1.640625 -4.953125 1.640625 -4.703125 C 1.640625 -4.429688 1.773438 -4.210938 2.046875 -4.046875 C 2.203125 -3.953125 2.429688 -3.867188 2.734375 -3.796875 L 3.421875 -3.625 C 4.179688 -3.4375 4.691406 -3.257812 4.953125 -3.09375 C 5.359375 -2.820312 5.5625 -2.394531 5.5625 -1.8125 C 5.5625 -1.257812 5.347656 -0.78125 4.921875 -0.375 C 4.503906 0.03125 3.863281 0.234375 3 0.234375 C 2.0625 0.234375 1.394531 0.0234375 1 -0.390625 C 0.613281 -0.816406 0.410156 -1.34375 0.390625 -1.96875 Z M 2.953125 -6.421875 Z M 2.953125 -6.421875 "/>
</symbol>
<symbol overflow="visible" id="glyph0-12">
<path style="stroke:none;" d="M 0.78125 -6.25 L 1.84375 -6.25 L 1.84375 0 L 0.78125 0 Z M 0.78125 -8.609375 L 1.84375 -8.609375 L 1.84375 -7.40625 L 0.78125 -7.40625 Z M 0.78125 -8.609375 "/>
</symbol>
<symbol overflow="visible" id="glyph0-13">
<path style="stroke:none;" d="M 3.265625 -0.6875 C 3.960938 -0.6875 4.441406 -0.945312 4.703125 -1.46875 C 4.960938 -2 5.09375 -2.585938 5.09375 -3.234375 C 5.09375 -3.828125 5 -4.304688 4.8125 -4.671875 C 4.507812 -5.242188 4 -5.53125 3.28125 -5.53125 C 2.632812 -5.53125 2.164062 -5.285156 1.875 -4.796875 C 1.582031 -4.304688 1.4375 -3.710938 1.4375 -3.015625 C 1.4375 -2.347656 1.582031 -1.789062 1.875 -1.34375 C 2.164062 -0.90625 2.628906 -0.6875 3.265625 -0.6875 Z M 3.3125 -6.453125 C 4.113281 -6.453125 4.789062 -6.179688 5.34375 -5.640625 C 5.90625 -5.109375 6.1875 -4.316406 6.1875 -3.265625 C 6.1875 -2.253906 5.941406 -1.414062 5.453125 -0.75 C 4.960938 -0.09375 4.203125 0.234375 3.171875 0.234375 C 2.304688 0.234375 1.617188 -0.0546875 1.109375 -0.640625 C 0.597656 -1.234375 0.34375 -2.019531 0.34375 -3 C 0.34375 -4.050781 0.609375 -4.890625 1.140625 -5.515625 C 1.679688 -6.140625 2.40625 -6.453125 3.3125 -6.453125 Z M 3.265625 -6.421875 Z M 3.265625 -6.421875 "/>
</symbol>
<symbol overflow="visible" id="glyph0-14">
<path style="stroke:none;" d="M 0.78125 -6.28125 L 1.78125 -6.28125 L 1.78125 -5.390625 C 2.070312 -5.753906 2.382812 -6.015625 2.71875 -6.171875 C 3.050781 -6.335938 3.421875 -6.421875 3.828125 -6.421875 C 4.710938 -6.421875 5.3125 -6.109375 5.625 -5.484375 C 5.800781 -5.140625 5.890625 -4.65625 5.890625 -4.03125 L 5.890625 0 L 4.8125 0 L 4.8125 -3.953125 C 4.8125 -4.335938 4.753906 -4.644531 4.640625 -4.875 C 4.453125 -5.269531 4.113281 -5.46875 3.625 -5.46875 C 3.375 -5.46875 3.171875 -5.441406 3.015625 -5.390625 C 2.722656 -5.304688 2.46875 -5.132812 2.25 -4.875 C 2.070312 -4.664062 1.957031 -4.453125 1.90625 -4.234375 C 1.851562 -4.015625 1.828125 -3.695312 1.828125 -3.28125 L 1.828125 0 L 0.78125 0 Z M 3.25 -6.421875 Z M 3.25 -6.421875 "/>
</symbol>
<symbol overflow="visible" id="glyph0-15">
<path style="stroke:none;" d="M 3.1875 -6.453125 C 3.894531 -6.453125 4.46875 -6.28125 4.90625 -5.9375 C 5.351562 -5.59375 5.625 -5.003906 5.71875 -4.171875 L 4.6875 -4.171875 C 4.625 -4.554688 4.484375 -4.875 4.265625 -5.125 C 4.046875 -5.382812 3.6875 -5.515625 3.1875 -5.515625 C 2.519531 -5.515625 2.039062 -5.1875 1.75 -4.53125 C 1.5625 -4.101562 1.46875 -3.578125 1.46875 -2.953125 C 1.46875 -2.328125 1.597656 -1.796875 1.859375 -1.359375 C 2.128906 -0.929688 2.550781 -0.71875 3.125 -0.71875 C 3.5625 -0.71875 3.90625 -0.851562 4.15625 -1.125 C 4.414062 -1.394531 4.59375 -1.757812 4.6875 -2.21875 L 5.71875 -2.21875 C 5.601562 -1.382812 5.3125 -0.773438 4.84375 -0.390625 C 4.375 -0.00390625 3.773438 0.1875 3.046875 0.1875 C 2.222656 0.1875 1.566406 -0.113281 1.078125 -0.71875 C 0.585938 -1.320312 0.34375 -2.070312 0.34375 -2.96875 C 0.34375 -4.070312 0.609375 -4.925781 1.140625 -5.53125 C 1.679688 -6.144531 2.363281 -6.453125 3.1875 -6.453125 Z M 3.03125 -6.421875 Z M 3.03125 -6.421875 "/>
</symbol>
<symbol overflow="visible" id="glyph0-16">
<path style="stroke:none;" d="M 1.03125 -7.234375 C 1.050781 -7.671875 1.128906 -7.988281 1.265625 -8.1875 C 1.515625 -8.550781 1.988281 -8.734375 2.6875 -8.734375 C 2.757812 -8.734375 2.828125 -8.726562 2.890625 -8.71875 C 2.960938 -8.71875 3.046875 -8.710938 3.140625 -8.703125 L 3.140625 -7.75 C 3.023438 -7.757812 2.941406 -7.765625 2.890625 -7.765625 C 2.847656 -7.765625 2.804688 -7.765625 2.765625 -7.765625 C 2.441406 -7.765625 2.25 -7.679688 2.1875 -7.515625 C 2.125 -7.347656 2.09375 -6.925781 2.09375 -6.25 L 3.140625 -6.25 L 3.140625 -5.421875 L 2.078125 -5.421875 L 2.078125 0 L 1.03125 0 L 1.03125 -5.421875 L 0.171875 -5.421875 L 0.171875 -6.25 L 1.03125 -6.25 Z M 1.03125 -7.234375 "/>
</symbol>
<symbol overflow="visible" id="glyph0-17">
<path style="stroke:none;" d="M 0.984375 -8.03125 L 2.046875 -8.03125 L 2.046875 -6.28125 L 3.046875 -6.28125 L 3.046875 -5.421875 L 2.046875 -5.421875 L 2.046875 -1.3125 C 2.046875 -1.09375 2.125 -0.945312 2.28125 -0.875 C 2.351562 -0.832031 2.488281 -0.8125 2.6875 -0.8125 C 2.738281 -0.8125 2.789062 -0.8125 2.84375 -0.8125 C 2.90625 -0.820312 2.972656 -0.828125 3.046875 -0.828125 L 3.046875 0 C 2.929688 0.03125 2.804688 0.0507812 2.671875 0.0625 C 2.546875 0.0820312 2.40625 0.09375 2.25 0.09375 C 1.757812 0.09375 1.425781 -0.03125 1.25 -0.28125 C 1.070312 -0.53125 0.984375 -0.859375 0.984375 -1.265625 L 0.984375 -5.421875 L 0.140625 -5.421875 L 0.140625 -6.28125 L 0.984375 -6.28125 Z M 0.984375 -8.03125 "/>
</symbol>
<symbol overflow="visible" id="glyph1-0">
<path style="stroke:none;" d="M 0 -0.390625 L -8.609375 -0.390625 L -8.609375 -7.21875 L 0 -7.21875 Z M -1.078125 -6.140625 L -7.53125 -6.140625 L -7.53125 -1.46875 L -1.078125 -1.46875 Z M -1.078125 -6.140625 "/>
</symbol>
<symbol overflow="visible" id="glyph1-1">
<path style="stroke:none;" d="M -3.890625 -0.5 L -3.890625 -3.4375 L -2.796875 -3.4375 L -2.796875 -0.5 Z M -3.890625 -0.5 "/>
</symbol>
<symbol overflow="visible" id="glyph1-2">
<path style="stroke:none;" d="M -5.9375 -1.15625 L -6.75 -1.15625 C -6.820312 -1.914062 -6.945312 -2.441406 -7.125 -2.734375 C -7.300781 -3.035156 -7.710938 -3.265625 -8.359375 -3.421875 L -8.359375 -4.25 L 0 -4.25 L 0 -3.125 L -5.9375 -3.125 Z M -5.9375 -1.15625 "/>
</symbol>
<symbol overflow="visible" id="glyph1-3">
<path style="stroke:none;" d="M -1.28125 -1.03125 L -1.28125 -2.25 L 0 -2.25 L 0 -1.03125 Z M -1.28125 -1.03125 "/>
</symbol>
<symbol overflow="visible" id="glyph1-4">
<path style="stroke:none;" d="M -8.390625 -3.25 C -8.390625 -4.332031 -7.941406 -5.117188 -7.046875 -5.609375 C -6.359375 -5.984375 -5.410156 -6.171875 -4.203125 -6.171875 C -3.066406 -6.171875 -2.125 -6 -1.375 -5.65625 C -0.300781 -5.164062 0.234375 -4.359375 0.234375 -3.234375 C 0.234375 -2.234375 -0.203125 -1.484375 -1.078125 -0.984375 C -1.816406 -0.578125 -2.800781 -0.375 -4.03125 -0.375 C -4.976562 -0.375 -5.796875 -0.5 -6.484375 -0.75 C -7.753906 -1.207031 -8.390625 -2.039062 -8.390625 -3.25 Z M -0.734375 -3.234375 C -0.734375 -3.785156 -0.972656 -4.222656 -1.453125 -4.546875 C -1.941406 -4.867188 -2.847656 -5.03125 -4.171875 -5.03125 C -5.117188 -5.03125 -5.898438 -4.910156 -6.515625 -4.671875 C -7.128906 -4.441406 -7.4375 -3.988281 -7.4375 -3.3125 C -7.4375 -2.6875 -7.144531 -2.226562 -6.5625 -1.9375 C -5.976562 -1.65625 -5.117188 -1.515625 -3.984375 -1.515625 C -3.128906 -1.515625 -2.441406 -1.609375 -1.921875 -1.796875 C -1.128906 -2.078125 -0.734375 -2.554688 -0.734375 -3.234375 Z M -0.734375 -3.234375 "/>
</symbol>
<symbol overflow="visible" id="glyph1-5">
<path style="stroke:none;" d="M -2.140625 -1.484375 C -1.535156 -1.554688 -1.117188 -1.835938 -0.890625 -2.328125 C -0.773438 -2.578125 -0.71875 -2.863281 -0.71875 -3.1875 C -0.71875 -3.8125 -0.914062 -4.273438 -1.3125 -4.578125 C -1.707031 -4.878906 -2.148438 -5.03125 -2.640625 -5.03125 C -3.222656 -5.03125 -3.675781 -4.847656 -4 -4.484375 C -4.320312 -4.128906 -4.484375 -3.703125 -4.484375 -3.203125 C -4.484375 -2.835938 -4.410156 -2.523438 -4.265625 -2.265625 C -4.128906 -2.003906 -3.9375 -1.785156 -3.6875 -1.609375 L -3.734375 -0.6875 L -8.25 -1.328125 L -8.25 -5.6875 L -7.234375 -5.6875 L -7.234375 -2.125 L -4.90625 -1.765625 C -5.050781 -1.960938 -5.160156 -2.148438 -5.234375 -2.328125 C -5.359375 -2.640625 -5.421875 -3 -5.421875 -3.40625 C -5.421875 -4.175781 -5.171875 -4.828125 -4.671875 -5.359375 C -4.179688 -5.898438 -3.554688 -6.171875 -2.796875 -6.171875 C -2.003906 -6.171875 -1.300781 -5.921875 -0.6875 -5.421875 C -0.0820312 -4.929688 0.21875 -4.148438 0.21875 -3.078125 C 0.21875 -2.398438 0.0234375 -1.796875 -0.359375 -1.265625 C -0.742188 -0.742188 -1.335938 -0.453125 -2.140625 -0.390625 Z M -2.140625 -1.484375 "/>
</symbol>
<symbol overflow="visible" id="glyph1-6">
<path style="stroke:none;" d="M -8.609375 -1.03125 L -8.609375 -7.296875 L -7.546875 -7.296875 L -7.546875 -2.15625 L -4.9375 -2.15625 L -4.9375 -6.921875 L -3.9375 -6.921875 L -3.9375 -2.15625 L -1.03125 -2.15625 L -1.03125 -7.390625 L 0 -7.390625 L 0 -1.03125 Z M -8.609375 -4.203125 Z M -8.609375 -4.203125 "/>
</symbol>
<symbol overflow="visible" id="glyph1-7">
<path style="stroke:none;" d="M -1.96875 -1.40625 C -1.613281 -1.4375 -1.34375 -1.523438 -1.15625 -1.671875 C -0.820312 -1.929688 -0.65625 -2.390625 -0.65625 -3.046875 C -0.65625 -3.441406 -0.738281 -3.785156 -0.90625 -4.078125 C -1.070312 -4.378906 -1.332031 -4.53125 -1.6875 -4.53125 C -1.957031 -4.53125 -2.164062 -4.410156 -2.3125 -4.171875 C -2.394531 -4.015625 -2.492188 -3.710938 -2.609375 -3.265625 L -2.8125 -2.421875 C -2.945312 -1.890625 -3.097656 -1.5 -3.265625 -1.25 C -3.546875 -0.789062 -3.941406 -0.5625 -4.453125 -0.5625 C -5.046875 -0.5625 -5.523438 -0.773438 -5.890625 -1.203125 C -6.253906 -1.628906 -6.4375 -2.207031 -6.4375 -2.9375 C -6.4375 -3.875 -6.160156 -4.550781 -5.609375 -4.96875 C -5.253906 -5.238281 -4.875 -5.367188 -4.46875 -5.359375 L -4.46875 -4.359375 C -4.707031 -4.335938 -4.925781 -4.253906 -5.125 -4.109375 C -5.394531 -3.867188 -5.53125 -3.445312 -5.53125 -2.84375 C -5.53125 -2.445312 -5.453125 -2.144531 -5.296875 -1.9375 C -5.148438 -1.738281 -4.953125 -1.640625 -4.703125 -1.640625 C -4.429688 -1.640625 -4.210938 -1.773438 -4.046875 -2.046875 C -3.953125 -2.203125 -3.867188 -2.429688 -3.796875 -2.734375 L -3.625 -3.421875 C -3.4375 -4.179688 -3.257812 -4.691406 -3.09375 -4.953125 C -2.820312 -5.359375 -2.394531 -5.5625 -1.8125 -5.5625 C -1.257812 -5.5625 -0.78125 -5.347656 -0.375 -4.921875 C 0.03125 -4.503906 0.234375 -3.863281 0.234375 -3 C 0.234375 -2.0625 0.0234375 -1.394531 -0.390625 -1 C -0.816406 -0.613281 -1.34375 -0.410156 -1.96875 -0.390625 Z M -6.421875 -2.953125 Z M -6.421875 -2.953125 "/>
</symbol>
<symbol overflow="visible" id="glyph1-8">
<path style="stroke:none;" d="M -8.03125 -0.984375 L -8.03125 -2.046875 L -6.28125 -2.046875 L -6.28125 -3.046875 L -5.421875 -3.046875 L -5.421875 -2.046875 L -1.3125 -2.046875 C -1.09375 -2.046875 -0.945312 -2.125 -0.875 -2.28125 C -0.832031 -2.351562 -0.8125 -2.488281 -0.8125 -2.6875 C -0.8125 -2.738281 -0.8125 -2.789062 -0.8125 -2.84375 C -0.820312 -2.90625 -0.828125 -2.972656 -0.828125 -3.046875 L 0 -3.046875 C 0.03125 -2.929688 0.0507812 -2.804688 0.0625 -2.671875 C 0.0820312 -2.546875 0.09375 -2.40625 0.09375 -2.25 C 0.09375 -1.757812 -0.03125 -1.425781 -0.28125 -1.25 C -0.53125 -1.070312 -0.859375 -0.984375 -1.265625 -0.984375 L -5.421875 -0.984375 L -5.421875 -0.140625 L -6.28125 -0.140625 L -6.28125 -0.984375 Z M -8.03125 -0.984375 "/>
</symbol>
<symbol overflow="visible" id="glyph1-9">
<path style="stroke:none;" d="M -6.25 -0.78125 L -6.25 -1.84375 L 0 -1.84375 L 0 -0.78125 Z M -8.609375 -0.78125 L -8.609375 -1.84375 L -7.40625 -1.84375 L -7.40625 -0.78125 Z M -8.609375 -0.78125 "/>
</symbol>
<symbol overflow="visible" id="glyph1-10">
<path style="stroke:none;" d="M -6.28125 -0.78125 L -6.28125 -1.8125 L -5.390625 -1.8125 C -5.691406 -2.0625 -5.914062 -2.289062 -6.0625 -2.5 C -6.300781 -2.84375 -6.421875 -3.238281 -6.421875 -3.6875 C -6.421875 -4.1875 -6.296875 -4.585938 -6.046875 -4.890625 C -5.910156 -5.054688 -5.703125 -5.210938 -5.421875 -5.359375 C -5.765625 -5.585938 -6.015625 -5.859375 -6.171875 -6.171875 C -6.335938 -6.492188 -6.421875 -6.851562 -6.421875 -7.25 C -6.421875 -8.09375 -6.113281 -8.664062 -5.5 -8.96875 C -5.175781 -9.132812 -4.734375 -9.21875 -4.171875 -9.21875 L 0 -9.21875 L 0 -8.125 L -4.359375 -8.125 C -4.773438 -8.125 -5.0625 -8.019531 -5.21875 -7.8125 C -5.375 -7.601562 -5.453125 -7.347656 -5.453125 -7.046875 C -5.453125 -6.628906 -5.3125 -6.269531 -5.03125 -5.96875 C -4.757812 -5.675781 -4.300781 -5.53125 -3.65625 -5.53125 L 0 -5.53125 L 0 -4.453125 L -4.09375 -4.453125 C -4.519531 -4.453125 -4.832031 -4.398438 -5.03125 -4.296875 C -5.320312 -4.140625 -5.46875 -3.84375 -5.46875 -3.40625 C -5.46875 -3.007812 -5.3125 -2.644531 -5 -2.3125 C -4.695312 -1.988281 -4.140625 -1.828125 -3.328125 -1.828125 L 0 -1.828125 L 0 -0.78125 Z M -6.28125 -0.78125 "/>
</symbol>
<symbol overflow="visible" id="glyph1-11">
<path style="stroke:none;" d="M -1.671875 -1.578125 C -1.367188 -1.578125 -1.128906 -1.6875 -0.953125 -1.90625 C -0.773438 -2.132812 -0.6875 -2.398438 -0.6875 -2.703125 C -0.6875 -3.078125 -0.769531 -3.4375 -0.9375 -3.78125 C -1.226562 -4.375 -1.695312 -4.671875 -2.34375 -4.671875 L -3.1875 -4.671875 C -3.113281 -4.535156 -3.046875 -4.363281 -2.984375 -4.15625 C -2.929688 -3.957031 -2.894531 -3.757812 -2.875 -3.5625 L -2.796875 -2.9375 C -2.742188 -2.550781 -2.660156 -2.257812 -2.546875 -2.0625 C -2.367188 -1.738281 -2.078125 -1.578125 -1.671875 -1.578125 Z M -3.796875 -4.140625 C -3.828125 -4.378906 -3.929688 -4.539062 -4.109375 -4.625 C -4.203125 -4.664062 -4.335938 -4.6875 -4.515625 -4.6875 C -4.867188 -4.6875 -5.125 -4.554688 -5.28125 -4.296875 C -5.445312 -4.046875 -5.53125 -3.6875 -5.53125 -3.21875 C -5.53125 -2.664062 -5.382812 -2.273438 -5.09375 -2.046875 C -4.925781 -1.910156 -4.679688 -1.820312 -4.359375 -1.78125 L -4.359375 -0.796875 C -5.128906 -0.816406 -5.664062 -1.066406 -5.96875 -1.546875 C -6.269531 -2.035156 -6.421875 -2.597656 -6.421875 -3.234375 C -6.421875 -3.972656 -6.28125 -4.570312 -6 -5.03125 C -5.71875 -5.488281 -5.28125 -5.71875 -4.6875 -5.71875 L -1.078125 -5.71875 C -0.972656 -5.71875 -0.882812 -5.738281 -0.8125 -5.78125 C -0.75 -5.832031 -0.71875 -5.929688 -0.71875 -6.078125 C -0.71875 -6.117188 -0.71875 -6.164062 -0.71875 -6.21875 C -0.726562 -6.28125 -0.738281 -6.347656 -0.75 -6.421875 L 0.03125 -6.421875 C 0.0703125 -6.253906 0.0976562 -6.125 0.109375 -6.03125 C 0.128906 -5.945312 0.140625 -5.832031 0.140625 -5.6875 C 0.140625 -5.320312 0.0078125 -5.0625 -0.25 -4.90625 C -0.382812 -4.8125 -0.578125 -4.75 -0.828125 -4.71875 C -0.546875 -4.5 -0.300781 -4.1875 -0.09375 -3.78125 C 0.113281 -3.382812 0.21875 -2.945312 0.21875 -2.46875 C 0.21875 -1.882812 0.0390625 -1.40625 -0.3125 -1.03125 C -0.664062 -0.664062 -1.109375 -0.484375 -1.640625 -0.484375 C -2.222656 -0.484375 -2.675781 -0.664062 -3 -1.03125 C -3.320312 -1.394531 -3.519531 -1.867188 -3.59375 -2.453125 Z M -6.421875 -3.265625 Z M -6.421875 -3.265625 "/>
</symbol>
<symbol overflow="visible" id="glyph1-12">
<path style="stroke:none;" d="M -6.421875 -3.390625 C -6.421875 -3.835938 -6.316406 -4.269531 -6.109375 -4.6875 C -5.898438 -5.101562 -5.628906 -5.421875 -5.296875 -5.640625 C -4.972656 -5.847656 -4.601562 -5.988281 -4.1875 -6.0625 C -3.894531 -6.125 -3.429688 -6.15625 -2.796875 -6.15625 L -2.796875 -1.546875 C -2.160156 -1.566406 -1.648438 -1.71875 -1.265625 -2 C -0.878906 -2.28125 -0.6875 -2.71875 -0.6875 -3.3125 C -0.6875 -3.863281 -0.867188 -4.300781 -1.234375 -4.625 C -1.441406 -4.8125 -1.6875 -4.945312 -1.96875 -5.03125 L -1.96875 -6.0625 C -1.738281 -6.039062 -1.484375 -5.953125 -1.203125 -5.796875 C -0.921875 -5.640625 -0.6875 -5.46875 -0.5 -5.28125 C -0.1875 -4.957031 0.0195312 -4.554688 0.125 -4.078125 C 0.1875 -3.828125 0.21875 -3.539062 0.21875 -3.21875 C 0.21875 -2.4375 -0.0625 -1.773438 -0.625 -1.234375 C -1.195312 -0.691406 -1.992188 -0.421875 -3.015625 -0.421875 C -4.023438 -0.421875 -4.84375 -0.691406 -5.46875 -1.234375 C -6.101562 -1.785156 -6.421875 -2.503906 -6.421875 -3.390625 Z M -3.640625 -5.0625 C -4.097656 -5.019531 -4.460938 -4.921875 -4.734375 -4.765625 C -5.242188 -4.484375 -5.5 -4.003906 -5.5 -3.328125 C -5.5 -2.835938 -5.320312 -2.425781 -4.96875 -2.09375 C -4.625 -1.769531 -4.179688 -1.597656 -3.640625 -1.578125 Z M -6.421875 -3.28125 Z M -6.421875 -3.28125 "/>
</symbol>
<symbol overflow="visible" id="glyph1-13">
<path style="stroke:none;" d="M -3.0625 -1.4375 C -2.394531 -1.4375 -1.832031 -1.578125 -1.375 -1.859375 C -0.925781 -2.148438 -0.703125 -2.609375 -0.703125 -3.234375 C -0.703125 -3.722656 -0.910156 -4.125 -1.328125 -4.4375 C -1.742188 -4.757812 -2.347656 -4.921875 -3.140625 -4.921875 C -3.929688 -4.921875 -4.515625 -4.753906 -4.890625 -4.421875 C -5.273438 -4.097656 -5.46875 -3.703125 -5.46875 -3.234375 C -5.46875 -2.703125 -5.265625 -2.269531 -4.859375 -1.9375 C -4.453125 -1.601562 -3.851562 -1.4375 -3.0625 -1.4375 Z M -6.390625 -3.03125 C -6.390625 -3.507812 -6.285156 -3.910156 -6.078125 -4.234375 C -5.960938 -4.421875 -5.757812 -4.632812 -5.46875 -4.875 L -8.640625 -4.875 L -8.640625 -5.890625 L 0 -5.890625 L 0 -4.9375 L -0.875 -4.9375 C -0.488281 -4.695312 -0.207031 -4.40625 -0.03125 -4.0625 C 0.132812 -3.726562 0.21875 -3.34375 0.21875 -2.90625 C 0.21875 -2.207031 -0.0703125 -1.601562 -0.65625 -1.09375 C -1.25 -0.582031 -2.03125 -0.328125 -3 -0.328125 C -3.914062 -0.328125 -4.707031 -0.5625 -5.375 -1.03125 C -6.050781 -1.5 -6.390625 -2.164062 -6.390625 -3.03125 Z M -6.390625 -3.03125 "/>
</symbol>
<symbol overflow="visible" id="glyph1-14">
<path style="stroke:none;" d=""/>
</symbol>
<symbol overflow="visible" id="glyph1-15">
<path style="stroke:none;" d="M -6.28125 -0.796875 L -6.28125 -1.8125 L -5.1875 -1.8125 C -5.40625 -1.882812 -5.664062 -2.082031 -5.96875 -2.40625 C -6.269531 -2.726562 -6.421875 -3.097656 -6.421875 -3.515625 C -6.421875 -3.535156 -6.414062 -3.566406 -6.40625 -3.609375 C -6.40625 -3.660156 -6.398438 -3.742188 -6.390625 -3.859375 L -5.28125 -3.859375 C -5.289062 -3.796875 -5.296875 -3.738281 -5.296875 -3.6875 C -5.296875 -3.632812 -5.296875 -3.578125 -5.296875 -3.515625 C -5.296875 -2.984375 -5.125 -2.570312 -4.78125 -2.28125 C -4.445312 -2 -4.054688 -1.859375 -3.609375 -1.859375 L 0 -1.859375 L 0 -0.796875 Z M -6.28125 -0.796875 "/>
</symbol>
<symbol overflow="visible" id="glyph1-16">
<path style="stroke:none;" d="M -6.390625 -2.984375 C -6.390625 -3.484375 -6.269531 -3.914062 -6.03125 -4.28125 C -5.882812 -4.476562 -5.679688 -4.679688 -5.421875 -4.890625 L -6.21875 -4.890625 L -6.21875 -5.859375 L -0.515625 -5.859375 C 0.285156 -5.859375 0.914062 -5.742188 1.375 -5.515625 C 2.226562 -5.078125 2.65625 -4.25 2.65625 -3.03125 C 2.65625 -2.351562 2.503906 -1.785156 2.203125 -1.328125 C 1.898438 -0.867188 1.425781 -0.609375 0.78125 -0.546875 L 0.78125 -1.625 C 1.0625 -1.675781 1.28125 -1.773438 1.4375 -1.921875 C 1.664062 -2.160156 1.78125 -2.535156 1.78125 -3.046875 C 1.78125 -3.859375 1.492188 -4.390625 0.921875 -4.640625 C 0.585938 -4.785156 -0.0078125 -4.851562 -0.875 -4.84375 C -0.550781 -4.632812 -0.3125 -4.378906 -0.15625 -4.078125 C 0 -3.785156 0.078125 -3.394531 0.078125 -2.90625 C 0.078125 -2.226562 -0.160156 -1.632812 -0.640625 -1.125 C -1.128906 -0.613281 -1.929688 -0.359375 -3.046875 -0.359375 C -4.097656 -0.359375 -4.914062 -0.613281 -5.5 -1.125 C -6.09375 -1.644531 -6.390625 -2.265625 -6.390625 -2.984375 Z M -3.171875 -4.890625 C -3.941406 -4.890625 -4.515625 -4.726562 -4.890625 -4.40625 C -5.265625 -4.082031 -5.453125 -3.675781 -5.453125 -3.1875 C -5.453125 -2.4375 -5.101562 -1.925781 -4.40625 -1.65625 C -4.039062 -1.507812 -3.554688 -1.4375 -2.953125 -1.4375 C -2.242188 -1.4375 -1.703125 -1.578125 -1.328125 -1.859375 C -0.960938 -2.148438 -0.78125 -2.539062 -0.78125 -3.03125 C -0.78125 -3.789062 -1.125 -4.320312 -1.8125 -4.625 C -2.195312 -4.800781 -2.648438 -4.890625 -3.171875 -4.890625 Z M -6.421875 -3.109375 Z M -6.421875 -3.109375 "/>
</symbol>
<symbol overflow="visible" id="glyph1-17">
<path style="stroke:none;" d="M -0.6875 -3.265625 C -0.6875 -3.960938 -0.945312 -4.441406 -1.46875 -4.703125 C -2 -4.960938 -2.585938 -5.09375 -3.234375 -5.09375 C -3.828125 -5.09375 -4.304688 -5 -4.671875 -4.8125 C -5.242188 -4.507812 -5.53125 -4 -5.53125 -3.28125 C -5.53125 -2.632812 -5.285156 -2.164062 -4.796875 -1.875 C -4.304688 -1.582031 -3.710938 -1.4375 -3.015625 -1.4375 C -2.347656 -1.4375 -1.789062 -1.582031 -1.34375 -1.875 C -0.90625 -2.164062 -0.6875 -2.628906 -0.6875 -3.265625 Z M -6.453125 -3.3125 C -6.453125 -4.113281 -6.179688 -4.789062 -5.640625 -5.34375 C -5.109375 -5.90625 -4.316406 -6.1875 -3.265625 -6.1875 C -2.253906 -6.1875 -1.414062 -5.941406 -0.75 -5.453125 C -0.09375 -4.960938 0.234375 -4.203125 0.234375 -3.171875 C 0.234375 -2.304688 -0.0546875 -1.617188 -0.640625 -1.109375 C -1.234375 -0.597656 -2.019531 -0.34375 -3 -0.34375 C -4.050781 -0.34375 -4.890625 -0.609375 -5.515625 -1.140625 C -6.140625 -1.679688 -6.453125 -2.40625 -6.453125 -3.3125 Z M -6.421875 -3.265625 Z M -6.421875 -3.265625 "/>
</symbol>
<symbol overflow="visible" id="glyph1-18">
<path style="stroke:none;" d="M -6.28125 -0.78125 L -6.28125 -1.78125 L -5.390625 -1.78125 C -5.753906 -2.070312 -6.015625 -2.382812 -6.171875 -2.71875 C -6.335938 -3.050781 -6.421875 -3.421875 -6.421875 -3.828125 C -6.421875 -4.710938 -6.109375 -5.3125 -5.484375 -5.625 C -5.140625 -5.800781 -4.65625 -5.890625 -4.03125 -5.890625 L 0 -5.890625 L 0 -4.8125 L -3.953125 -4.8125 C -4.335938 -4.8125 -4.644531 -4.753906 -4.875 -4.640625 C -5.269531 -4.453125 -5.46875 -4.113281 -5.46875 -3.625 C -5.46875 -3.375 -5.441406 -3.171875 -5.390625 -3.015625 C -5.304688 -2.722656 -5.132812 -2.46875 -4.875 -2.25 C -4.664062 -2.070312 -4.453125 -1.957031 -4.234375 -1.90625 C -4.015625 -1.851562 -3.695312 -1.828125 -3.28125 -1.828125 L 0 -1.828125 L 0 -0.78125 Z M -6.421875 -3.25 Z M -6.421875 -3.25 "/>
</symbol>
<symbol overflow="visible" id="glyph1-19">
<path style="stroke:none;" d="M -6.453125 -3.1875 C -6.453125 -3.894531 -6.28125 -4.46875 -5.9375 -4.90625 C -5.59375 -5.351562 -5.003906 -5.625 -4.171875 -5.71875 L -4.171875 -4.6875 C -4.554688 -4.625 -4.875 -4.484375 -5.125 -4.265625 C -5.382812 -4.046875 -5.515625 -3.6875 -5.515625 -3.1875 C -5.515625 -2.519531 -5.1875 -2.039062 -4.53125 -1.75 C -4.101562 -1.5625 -3.578125 -1.46875 -2.953125 -1.46875 C -2.328125 -1.46875 -1.796875 -1.597656 -1.359375 -1.859375 C -0.929688 -2.128906 -0.71875 -2.550781 -0.71875 -3.125 C -0.71875 -3.5625 -0.851562 -3.90625 -1.125 -4.15625 C -1.394531 -4.414062 -1.757812 -4.59375 -2.21875 -4.6875 L -2.21875 -5.71875 C -1.382812 -5.601562 -0.773438 -5.3125 -0.390625 -4.84375 C -0.00390625 -4.375 0.1875 -3.773438 0.1875 -3.046875 C 0.1875 -2.222656 -0.113281 -1.566406 -0.71875 -1.078125 C -1.320312 -0.585938 -2.070312 -0.34375 -2.96875 -0.34375 C -4.070312 -0.34375 -4.925781 -0.609375 -5.53125 -1.140625 C -6.144531 -1.679688 -6.453125 -2.363281 -6.453125 -3.1875 Z M -6.421875 -3.03125 Z M -6.421875 -3.03125 "/>
</symbol>
<symbol overflow="visible" id="glyph1-20">
<path style="stroke:none;" d="M -7.234375 -1.03125 C -7.671875 -1.050781 -7.988281 -1.128906 -8.1875 -1.265625 C -8.550781 -1.515625 -8.734375 -1.988281 -8.734375 -2.6875 C -8.734375 -2.757812 -8.726562 -2.828125 -8.71875 -2.890625 C -8.71875 -2.960938 -8.710938 -3.046875 -8.703125 -3.140625 L -7.75 -3.140625 C -7.757812 -3.023438 -7.765625 -2.941406 -7.765625 -2.890625 C -7.765625 -2.847656 -7.765625 -2.804688 -7.765625 -2.765625 C -7.765625 -2.441406 -7.679688 -2.25 -7.515625 -2.1875 C -7.347656 -2.125 -6.925781 -2.09375 -6.25 -2.09375 L -6.25 -3.140625 L -5.421875 -3.140625 L -5.421875 -2.078125 L 0 -2.078125 L 0 -1.03125 L -5.421875 -1.03125 L -5.421875 -0.171875 L -6.25 -0.171875 L -6.25 -1.03125 Z M -7.234375 -1.03125 "/>
</symbol>
</g>
<clipPath id="clip1">
  <path d="M 59.039062 59.039062 L 495.757812 59.039062 L 495.757812 234 L 59.039062 234 Z M 59.039062 59.039062 "/>
</clipPath>
</defs>
<g id="surface41">
<rect x="0" y="0" width="525" height="324" style="fill:rgb(100%,100%,100%);fill-opacity:1;stroke:none;"/>
<path style="fill:none;stroke-width:0.75;stroke-linecap:round;stroke-linejoin:round;stroke:rgb(0%,0%,0%);stroke-opacity:1;stroke-miterlimit:10;" d="M 307.976562 140.097656 C 307.976562 143.695312 302.578125 143.695312 302.578125 140.097656 C 302.578125 136.496094 307.976562 136.496094 307.976562 140.097656 "/>
<path style="fill:none;stroke-width:0.75;stroke-linecap:round;stroke-linejoin:round;stroke:rgb(0%,0%,0%);stroke-opacity:1;stroke-miterlimit:10;" d="M 325.816406 125.117188 C 325.816406 128.71875 320.414062 128.71875 320.414062 125.117188 C 320.414062 121.519531 325.816406 121.519531 325.816406 125.117188 "/>
<path style="fill:none;stroke-width:0.75;stroke-linecap:round;stroke-linejoin:round;stroke:rgb(0%,0%,0%);stroke-opacity:1;stroke-miterlimit:10;" d="M 307.976562 154.355469 C 307.976562 157.957031 302.578125 157.957031 302.578125 154.355469 C 302.578125 150.757812 307.976562 150.757812 307.976562 154.355469 "/>
<path style="fill:none;stroke-width:0.75;stroke-linecap:round;stroke-linejoin:round;stroke:rgb(0%,0%,0%);stroke-opacity:1;stroke-miterlimit:10;" d="M 381.648438 96.632812 C 381.648438 100.234375 376.25 100.234375 376.25 96.632812 C 376.25 93.03125 381.648438 93.03125 381.648438 96.632812 "/>
<path style="fill:none;stroke-width:0.75;stroke-linecap:round;stroke-linejoin:round;stroke:rgb(0%,0%,0%);stroke-opacity:1;stroke-miterlimit:10;" d="M 307.976562 132.425781 C 307.976562 136.023438 302.578125 136.023438 302.578125 132.425781 C 302.578125 128.824219 307.976562 128.824219 307.976562 132.425781 "/>
<path style="fill:none;stroke-width:0.75;stroke-linecap:round;stroke-linejoin:round;stroke:rgb(0%,0%,0%);stroke-opacity:1;stroke-miterlimit:10;" d="M 307.976562 141.171875 C 307.976562 144.773438 302.578125 144.773438 302.578125 141.171875 C 302.578125 137.570312 307.976562 137.570312 307.976562 141.171875 "/>
<path style="fill:none;stroke-width:0.75;stroke-linecap:round;stroke-linejoin:round;stroke:rgb(0%,0%,0%);stroke-opacity:1;stroke-miterlimit:10;" d="M 307.976562 114.675781 C 307.976562 118.273438 302.578125 118.273438 302.578125 114.675781 C 302.578125 111.074219 307.976562 111.074219 307.976562 114.675781 "/>
<path style="fill:none;stroke-width:0.75;stroke-linecap:round;stroke-linejoin:round;stroke:rgb(0%,0%,0%);stroke-opacity:1;stroke-miterlimit:10;" d="M 481.320312 66.132812 C 481.320312 69.734375 475.921875 69.734375 475.921875 66.132812 C 475.921875 62.535156 481.320312 62.535156 481.320312 66.132812 "/>
<path style="fill:none;stroke-width:0.75;stroke-linecap:round;stroke-linejoin:round;stroke:rgb(0%,0%,0%);stroke-opacity:1;stroke-miterlimit:10;" d="M 77.878906 243.464844 C 77.878906 247.066406 72.476562 247.066406 72.476562 243.464844 C 72.476562 239.867188 77.878906 239.867188 77.878906 243.464844 "/>
<path style="fill:none;stroke-width:0.75;stroke-linecap:round;stroke-linejoin:round;stroke:rgb(0%,0%,0%);stroke-opacity:1;stroke-miterlimit:10;" d="M 307.976562 129.835938 C 307.976562 133.4375 302.578125 133.4375 302.578125 129.835938 C 302.578125 126.238281 307.976562 126.238281 307.976562 129.835938 "/>
<path style="fill:none;stroke-width:0.75;stroke-linecap:round;stroke-linejoin:round;stroke:rgb(0%,0%,0%);stroke-opacity:1;stroke-miterlimit:10;" d="M 307.976562 144.6875 C 307.976562 148.285156 302.578125 148.285156 302.578125 144.6875 C 302.578125 141.085938 307.976562 141.085938 307.976562 144.6875 "/>
<path style="fill:none;stroke-width:0.75;stroke-linecap:round;stroke-linejoin:round;stroke:rgb(0%,0%,0%);stroke-opacity:1;stroke-miterlimit:10;" d="M 307.976562 144.789062 C 307.976562 148.390625 302.578125 148.390625 302.578125 144.789062 C 302.578125 141.1875 307.976562 141.1875 307.976562 144.789062 "/>
<path style="fill:none;stroke-width:0.75;stroke-linecap:round;stroke-linejoin:round;stroke:rgb(0%,0%,0%);stroke-opacity:1;stroke-miterlimit:10;" d="M 307.976562 159.816406 C 307.976562 163.417969 302.578125 163.417969 302.578125 159.816406 C 302.578125 156.21875 307.976562 156.21875 307.976562 159.816406 "/>
<path style="fill:none;stroke-width:0.75;stroke-linecap:round;stroke-linejoin:round;stroke:rgb(0%,0%,0%);stroke-opacity:1;stroke-miterlimit:10;" d="M 273.222656 144.894531 C 273.222656 148.492188 267.820312 148.492188 267.820312 144.894531 C 267.820312 141.292969 273.222656 141.292969 273.222656 144.894531 "/>
<path style="fill:none;stroke-width:0.75;stroke-linecap:round;stroke-linejoin:round;stroke:rgb(0%,0%,0%);stroke-opacity:1;stroke-miterlimit:10;" d="M 307.976562 125.238281 C 307.976562 128.839844 302.578125 128.839844 302.578125 125.238281 C 302.578125 121.640625 307.976562 121.640625 307.976562 125.238281 "/>
<path style="fill:none;stroke-width:0.75;stroke-linecap:round;stroke-linejoin:round;stroke:rgb(0%,0%,0%);stroke-opacity:1;stroke-miterlimit:10;" d="M 307.976562 144.554688 C 307.976562 148.152344 302.578125 148.152344 302.578125 144.554688 C 302.578125 140.953125 307.976562 140.953125 307.976562 144.554688 "/>
<path style="fill:none;stroke-width:0.75;stroke-linecap:round;stroke-linejoin:round;stroke:rgb(0%,0%,0%);stroke-opacity:1;stroke-miterlimit:10;" d="M 307.976562 135.535156 C 307.976562 139.132812 302.578125 139.132812 302.578125 135.535156 C 302.578125 131.933594 307.976562 131.933594 307.976562 135.535156 "/>
<path style="fill:none;stroke-width:0.75;stroke-linecap:round;stroke-linejoin:round;stroke:rgb(0%,0%,0%);stroke-opacity:1;stroke-miterlimit:10;" d="M 307.976562 149.621094 C 307.976562 153.222656 302.578125 153.222656 302.578125 149.621094 C 302.578125 146.019531 307.976562 146.019531 307.976562 149.621094 "/>
<path style="fill:none;stroke-width:0.75;stroke-linecap:round;stroke-linejoin:round;stroke:rgb(0%,0%,0%);stroke-opacity:1;stroke-miterlimit:10;" d="M 307.976562 163.863281 C 307.976562 167.460938 302.578125 167.460938 302.578125 163.863281 C 302.578125 160.261719 307.976562 160.261719 307.976562 163.863281 "/>
<path style="fill:none;stroke-width:0.75;stroke-linecap:round;stroke-linejoin:round;stroke:rgb(0%,0%,0%);stroke-opacity:1;stroke-miterlimit:10;" d="M 307.976562 124.773438 C 307.976562 128.375 302.578125 128.375 302.578125 124.773438 C 302.578125 121.175781 307.976562 121.175781 307.976562 124.773438 "/>
<path style="fill:none;stroke-width:0.75;stroke-linecap:round;stroke-linejoin:round;stroke:rgb(0%,0%,0%);stroke-opacity:1;stroke-miterlimit:10;" d="M 175.726562 250.558594 L 434.828125 250.558594 "/>
<path style="fill:none;stroke-width:0.75;stroke-linecap:round;stroke-linejoin:round;stroke:rgb(0%,0%,0%);stroke-opacity:1;stroke-miterlimit:10;" d="M 175.726562 250.558594 L 175.726562 257.761719 "/>
<path style="fill:none;stroke-width:0.75;stroke-linecap:round;stroke-linejoin:round;stroke:rgb(0%,0%,0%);stroke-opacity:1;stroke-miterlimit:10;" d="M 305.277344 250.558594 L 305.277344 257.761719 "/>
<path style="fill:none;stroke-width:0.75;stroke-linecap:round;stroke-linejoin:round;stroke:rgb(0%,0%,0%);stroke-opacity:1;stroke-miterlimit:10;" d="M 434.828125 250.558594 L 434.828125 257.761719 "/>
<g style="fill:rgb(0%,0%,0%);fill-opacity:1;">
  <use xlink:href="#glyph0-1" x="165.386719" y="276.480469"/>
  <use xlink:href="#glyph0-2" x="169.382812" y="276.480469"/>
  <use xlink:href="#glyph0-3" x="176.056641" y="276.480469"/>
  <use xlink:href="#glyph0-4" x="179.390625" y="276.480469"/>
</g>
<g style="fill:rgb(0%,0%,0%);fill-opacity:1;">
  <use xlink:href="#glyph0-2" x="296.9375" y="276.480469"/>
  <use xlink:href="#glyph0-3" x="303.611328" y="276.480469"/>
  <use xlink:href="#glyph0-2" x="306.945312" y="276.480469"/>
</g>
<g style="fill:rgb(0%,0%,0%);fill-opacity:1;">
  <use xlink:href="#glyph0-2" x="426.488281" y="276.480469"/>
  <use xlink:href="#glyph0-3" x="433.162109" y="276.480469"/>
  <use xlink:href="#glyph0-4" x="436.496094" y="276.480469"/>
</g>
<path style="fill:none;stroke-width:0.75;stroke-linecap:round;stroke-linejoin:round;stroke:rgb(0%,0%,0%);stroke-opacity:1;stroke-miterlimit:10;" d="M 59.039062 238.84375 L 59.039062 80.640625 "/>
<path style="fill:none;stroke-width:0.75;stroke-linecap:round;stroke-linejoin:round;stroke:rgb(0%,0%,0%);stroke-opacity:1;stroke-miterlimit:10;" d="M 59.039062 238.84375 L 51.839844 238.84375 "/>
<path style="fill:none;stroke-width:0.75;stroke-linecap:round;stroke-linejoin:round;stroke:rgb(0%,0%,0%);stroke-opacity:1;stroke-miterlimit:10;" d="M 59.039062 186.109375 L 51.839844 186.109375 "/>
<path style="fill:none;stroke-width:0.75;stroke-linecap:round;stroke-linejoin:round;stroke:rgb(0%,0%,0%);stroke-opacity:1;stroke-miterlimit:10;" d="M 59.039062 133.375 L 51.839844 133.375 "/>
<path style="fill:none;stroke-width:0.75;stroke-linecap:round;stroke-linejoin:round;stroke:rgb(0%,0%,0%);stroke-opacity:1;stroke-miterlimit:10;" d="M 59.039062 80.640625 L 51.839844 80.640625 "/>
<g style="fill:rgb(0%,0%,0%);fill-opacity:1;">
  <use xlink:href="#glyph1-1" x="41.761719" y="249.183594"/>
  <use xlink:href="#glyph1-2" x="41.761719" y="245.1875"/>
  <use xlink:href="#glyph1-3" x="41.761719" y="238.513672"/>
  <use xlink:href="#glyph1-4" x="41.761719" y="235.179688"/>
</g>
<g style="fill:rgb(0%,0%,0%);fill-opacity:1;">
  <use xlink:href="#glyph1-1" x="41.761719" y="196.449219"/>
  <use xlink:href="#glyph1-4" x="41.761719" y="192.453125"/>
  <use xlink:href="#glyph1-3" x="41.761719" y="185.779297"/>
  <use xlink:href="#glyph1-5" x="41.761719" y="182.445312"/>
</g>
<g style="fill:rgb(0%,0%,0%);fill-opacity:1;">
  <use xlink:href="#glyph1-4" x="41.761719" y="141.714844"/>
  <use xlink:href="#glyph1-3" x="41.761719" y="135.041016"/>
  <use xlink:href="#glyph1-4" x="41.761719" y="131.707031"/>
</g>
<g style="fill:rgb(0%,0%,0%);fill-opacity:1;">
  <use xlink:href="#glyph1-4" x="41.761719" y="88.980469"/>
  <use xlink:href="#glyph1-3" x="41.761719" y="82.306641"/>
  <use xlink:href="#glyph1-5" x="41.761719" y="78.972656"/>
</g>
<path style="fill:none;stroke-width:0.75;stroke-linecap:round;stroke-linejoin:round;stroke:rgb(0%,0%,0%);stroke-opacity:1;stroke-miterlimit:10;" d="M 59.039062 250.558594 L 494.761719 250.558594 L 494.761719 59.039062 L 59.039062 59.039062 L 59.039062 250.558594 "/>
<g style="fill:rgb(0%,0%,0%);fill-opacity:1;">
  <use xlink:href="#glyph0-5" x="203.199219" y="305.28125"/>
  <use xlink:href="#glyph0-6" x="210.529297" y="305.28125"/>
  <use xlink:href="#glyph0-7" x="214.525391" y="305.28125"/>
  <use xlink:href="#glyph0-8" x="221.199219" y="305.28125"/>
  <use xlink:href="#glyph0-9" x="227.873047" y="305.28125"/>
  <use xlink:href="#glyph0-6" x="231.207031" y="305.28125"/>
  <use xlink:href="#glyph0-8" x="235.203125" y="305.28125"/>
  <use xlink:href="#glyph0-10" x="241.876953" y="305.28125"/>
  <use xlink:href="#glyph0-6" x="248.550781" y="305.28125"/>
  <use xlink:href="#glyph0-8" x="252.546875" y="305.28125"/>
  <use xlink:href="#glyph0-11" x="259.220703" y="305.28125"/>
  <use xlink:href="#glyph0-11" x="265.220703" y="305.28125"/>
  <use xlink:href="#glyph0-12" x="271.220703" y="305.28125"/>
  <use xlink:href="#glyph0-13" x="273.886719" y="305.28125"/>
  <use xlink:href="#glyph0-14" x="280.560547" y="305.28125"/>
  <use xlink:href="#glyph0-9" x="287.234375" y="305.28125"/>
  <use xlink:href="#glyph0-15" x="290.568359" y="305.28125"/>
  <use xlink:href="#glyph0-13" x="296.568359" y="305.28125"/>
  <use xlink:href="#glyph0-8" x="303.242188" y="305.28125"/>
  <use xlink:href="#glyph0-16" x="309.916016" y="305.28125"/>
  <use xlink:href="#glyph0-16" x="313.25" y="305.28125"/>
  <use xlink:href="#glyph0-12" x="316.583984" y="305.28125"/>
  <use xlink:href="#glyph0-15" x="319.25" y="305.28125"/>
  <use xlink:href="#glyph0-12" x="325.25" y="305.28125"/>
  <use xlink:href="#glyph0-8" x="327.916016" y="305.28125"/>
  <use xlink:href="#glyph0-14" x="334.589844" y="305.28125"/>
  <use xlink:href="#glyph0-17" x="341.263672" y="305.28125"/>
  <use xlink:href="#glyph0-11" x="344.597656" y="305.28125"/>
</g>
<g style="fill:rgb(0%,0%,0%);fill-opacity:1;">
  <use xlink:href="#glyph1-6" x="12.960938" y="242.839844"/>
  <use xlink:href="#glyph1-7" x="12.960938" y="234.835938"/>
  <use xlink:href="#glyph1-8" x="12.960938" y="228.835938"/>
  <use xlink:href="#glyph1-9" x="12.960938" y="225.501953"/>
  <use xlink:href="#glyph1-10" x="12.960938" y="222.835938"/>
  <use xlink:href="#glyph1-11" x="12.960938" y="212.839844"/>
  <use xlink:href="#glyph1-8" x="12.960938" y="206.166016"/>
  <use xlink:href="#glyph1-12" x="12.960938" y="202.832031"/>
  <use xlink:href="#glyph1-13" x="12.960938" y="196.158203"/>
  <use xlink:href="#glyph1-14" x="12.960938" y="189.484375"/>
  <use xlink:href="#glyph1-15" x="12.960938" y="186.150391"/>
  <use xlink:href="#glyph1-12" x="12.960938" y="182.154297"/>
  <use xlink:href="#glyph1-16" x="12.960938" y="175.480469"/>
  <use xlink:href="#glyph1-15" x="12.960938" y="168.806641"/>
  <use xlink:href="#glyph1-12" x="12.960938" y="164.810547"/>
  <use xlink:href="#glyph1-7" x="12.960938" y="158.136719"/>
  <use xlink:href="#glyph1-7" x="12.960938" y="152.136719"/>
  <use xlink:href="#glyph1-9" x="12.960938" y="146.136719"/>
  <use xlink:href="#glyph1-17" x="12.960938" y="143.470703"/>
  <use xlink:href="#glyph1-18" x="12.960938" y="136.796875"/>
  <use xlink:href="#glyph1-14" x="12.960938" y="130.123047"/>
  <use xlink:href="#glyph1-19" x="12.960938" y="126.789062"/>
  <use xlink:href="#glyph1-17" x="12.960938" y="120.789062"/>
  <use xlink:href="#glyph1-12" x="12.960938" y="114.115234"/>
  <use xlink:href="#glyph1-20" x="12.960938" y="107.441406"/>
  <use xlink:href="#glyph1-20" x="12.960938" y="104.107422"/>
  <use xlink:href="#glyph1-9" x="12.960938" y="100.773438"/>
  <use xlink:href="#glyph1-19" x="12.960938" y="98.107422"/>
  <use xlink:href="#glyph1-9" x="12.960938" y="92.107422"/>
  <use xlink:href="#glyph1-12" x="12.960938" y="89.441406"/>
  <use xlink:href="#glyph1-18" x="12.960938" y="82.767578"/>
  <use xlink:href="#glyph1-8" x="12.960938" y="76.09375"/>
  <use xlink:href="#glyph1-7" x="12.960938" y="72.759766"/>
</g>
<g clip-path="url(#clip1)" clip-rule="nonzero">
<path style="fill:none;stroke-width:0.75;stroke-linecap:round;stroke-linejoin:round;stroke:rgb(0%,0%,0%);stroke-opacity:1;stroke-miterlimit:10;" d="M 59.039062 233.609375 L 494.761719 56.246094 "/>
</g>
</g>
</svg>
